Generating the data from the CliRes database (and other data sets)
…
Some of the completed flocks do not have 3 samplings:

> (tmp <- viparc %>% 
+   dplyr::select(USUBJID, FLOCKSEQUENCE, completed, sampling) %>% 
+   dplyr::group_by(USUBJID, FLOCKSEQUENCE) %>%
+   dplyr::summarise(completed = mean(completed), sampling = sum(sampling, na.rm = T)) %>% 
+   dplyr::ungroup() %>% 
+   dplyr::filter(completed > 0, sampling < 3))
# A tibble: 31 x 4
   USUBJID FLOCKSEQUENCE completed sampling
   <chr>           <int>     <dbl>    <int>
 1 75-003              1         1        2
 2 75-012              1         1        2
 3 75-012              4         1        2
 4 75-015              2         1        2
 5 75-016              2         1        2
 6 75-019              2         1        0
 7 75-022              2         1        2
 8 75-022              4         1        2
 9 75-029              3         1        0
10 75-029              4         1        2
# … with 21 more rows
…
